%YAML 1.1
%TAG !u! tag:unity3d.com,2011:
--- !u!1001 &100100000
Prefab:
  m_ObjectHideFlags: 1
  serializedVersion: 2
  m_Modification:
    m_TransformParent: {fileID: 0}
    m_Modifications: []
    m_RemovedComponents: []
  m_ParentPrefab: {fileID: 0}
  m_RootGameObject: {fileID: 1828664165163060}
  m_IsPrefabParent: 1
--- !u!1 &1828664165163060
GameObject:
  m_ObjectHideFlags: 0
  m_PrefabParentObject: {fileID: 0}
  m_PrefabInternal: {fileID: 100100000}
  serializedVersion: 5
  m_Component:
  - component: {fileID: 4219383982158118}
  - component: {fileID: 114327702532249958}
  - component: {fileID: 23923907538270146}
  - component: {fileID: 33061476932750490}
  - component: {fileID: 114606289343365744}
  - component: {fileID: 64086561499268170}
  m_Layer: 0
  m_Name: Cube 1
  m_TagString: Untagged
  m_Icon: {fileID: 0}
  m_NavMeshLayer: 0
  m_StaticEditorFlags: 127
  m_IsActive: 1
--- !u!4 &4219383982158118
Transform:
  m_ObjectHideFlags: 1
  m_PrefabParentObject: {fileID: 0}
  m_PrefabInternal: {fileID: 100100000}
  m_GameObject: {fileID: 1828664165163060}
  m_LocalRotation: {x: -0, y: -0.91587913, z: -0, w: 0.40145406}
  m_LocalPosition: {x: -26.883293, y: 1.7500002, z: 26.811146}
  m_LocalScale: {x: 1, y: 1.24, z: 1.27}
  m_Children: []
  m_Father: {fileID: 0}
  m_RootOrder: 0
  m_LocalEulerAnglesHint: {x: 0, y: 90, z: 0}
--- !u!23 &23923907538270146
MeshRenderer:
  m_ObjectHideFlags: 1
  m_PrefabParentObject: {fileID: 0}
  m_PrefabInternal: {fileID: 100100000}
  m_GameObject: {fileID: 1828664165163060}
  m_Enabled: 1
  m_CastShadows: 2
  m_ReceiveShadows: 1
  m_DynamicOccludee: 1
  m_MotionVectors: 1
  m_LightProbeUsage: 1
  m_ReflectionProbeUsage: 1
  m_RenderingLayerMask: 4294967295
  m_Materials:
  - {fileID: 2100000, guid: b1d4162e0ec6104448108c6249984df7, type: 2}
  m_StaticBatchInfo:
    firstSubMesh: 0
    subMeshCount: 0
  m_StaticBatchRoot: {fileID: 0}
  m_ProbeAnchor: {fileID: 0}
  m_LightProbeVolumeOverride: {fileID: 0}
  m_ScaleInLightmap: 1
  m_PreserveUVs: 0
  m_IgnoreNormalsForChartDetection: 0
  m_ImportantGI: 0
  m_StitchLightmapSeams: 0
  m_SelectedEditorRenderState: 2
  m_MinimumChartSize: 4
  m_AutoUVMaxDistance: 0.5
  m_AutoUVMaxAngle: 89
  m_LightmapParameters: {fileID: 0}
  m_SortingLayerID: 0
  m_SortingLayer: 0
  m_SortingOrder: 0
--- !u!33 &33061476932750490
MeshFilter:
  m_ObjectHideFlags: 1
  m_PrefabParentObject: {fileID: 0}
  m_PrefabInternal: {fileID: 100100000}
  m_GameObject: {fileID: 1828664165163060}
  m_Mesh: {fileID: 0}
--- !u!64 &64086561499268170
MeshCollider:
  m_ObjectHideFlags: 1
  m_PrefabParentObject: {fileID: 0}
  m_PrefabInternal: {fileID: 100100000}
  m_GameObject: {fileID: 1828664165163060}
  m_Material: {fileID: 0}
  m_IsTrigger: 0
  m_Enabled: 1
  serializedVersion: 3
  m_Convex: 0
  m_CookingOptions: 14
  m_SkinWidth: 0.01
  m_Mesh: {fileID: 0}
--- !u!114 &114327702532249958
MonoBehaviour:
  m_ObjectHideFlags: 1
  m_PrefabParentObject: {fileID: 0}
  m_PrefabInternal: {fileID: 100100000}
  m_GameObject: {fileID: 1828664165163060}
  m_Enabled: 1
  m_EditorHideFlags: 0
  m_Script: {fileID: 16342205, guid: 0472bdc8d6d15384d98f22ee34302f9c, type: 3}
  m_Name: 
  m_EditorClassIdentifier: 
  _entityType: 0
--- !u!114 &114606289343365744
MonoBehaviour:
  m_ObjectHideFlags: 1
  m_PrefabParentObject: {fileID: 0}
  m_PrefabInternal: {fileID: 100100000}
  m_GameObject: {fileID: 1828664165163060}
  m_Enabled: 1
  m_EditorHideFlags: 0
  m_Script: {fileID: 185759285, guid: 0472bdc8d6d15384d98f22ee34302f9c, type: 3}
  m_Name: 
  m_EditorClassIdentifier: 
  _quads:
  - _indices: 000000000100000002000000010000000300000002000000
    _distinctIndices: 00000000010000000200000003000000
    _edges:
    - x: 0
      y: 1
    - x: 2
      y: 0
    - x: 1
      y: 3
    - x: 3
      y: 2
    _smoothingGroup: 0
    _uv:
      useWorldSpace: 0
      flipU: 0
      flipV: 0
      swapUV: 0
      fill: 1
      scale: {x: 1, y: 1}
      offset: {x: 0, y: 0}
      rotation: 0
      justify: 0
      localPivot: {x: 0.05, y: -0.67}
      localSize: {x: 0, y: 0}
      anchor: 9
    _mat: {fileID: 2100000, guid: b1d4162e0ec6104448108c6249984df7, type: 2}
    manualUV: 0
    elementGroup: -1
    textureGroup: -1
  - _indices: 040000000500000006000000050000000700000006000000
    _distinctIndices: 04000000050000000600000007000000
    _edges:
    - x: 4
      y: 5
    - x: 6
      y: 4
    - x: 5
      y: 7
    - x: 7
      y: 6
    _smoothingGroup: 0
    _uv:
      useWorldSpace: 0
      flipU: 0
      flipV: 0
      swapUV: 0
      fill: 1
      scale: {x: 1, y: 1}
      offset: {x: 0, y: 0}
      rotation: 0
      justify: 0
      localPivot: {x: -0.05, y: -0.67}
      localSize: {x: 0, y: 0}
      anchor: 9
    _mat: {fileID: 2100000, guid: b1d4162e0ec6104448108c6249984df7, type: 2}
    manualUV: 0
    elementGroup: -1
    textureGroup: -1
  - _indices: 08000000090000000b000000090000000a0000000b000000
    _distinctIndices: 08000000090000000b0000000a000000
    _edges:
    - x: 8
      y: 9
    - x: 11
      y: 8
    - x: 9
      y: 10
    - x: 10
      y: 11
    _smoothingGroup: 0
    _uv:
      useWorldSpace: 0
      flipU: 0
      flipV: 0
      swapUV: 0
      fill: 1
      scale: {x: 1, y: 1}
      offset: {x: 0, y: 0}
      rotation: 0
      justify: 0
      localPivot: {x: -0.05, y: 1.17}
      localSize: {x: 0, y: 0}
      anchor: 9
    _mat: {fileID: 2100000, guid: b1d4162e0ec6104448108c6249984df7, type: 2}
    manualUV: 0
    elementGroup: 0
    textureGroup: 1
  - _indices: 0f0000000c0000000e0000000c0000000d0000000e000000
    _distinctIndices: 0f0000000c0000000e0000000d000000
    _edges:
    - x: 15
      y: 12
    - x: 14
      y: 15
    - x: 12
      y: 13
    - x: 13
      y: 14
    _smoothingGroup: 0
    _uv:
      useWorldSpace: 0
      flipU: 0
      flipV: 0
      swapUV: 0
      fill: 1
      scale: {x: 1, y: 1}
      offset: {x: 0, y: 0}
      rotation: 0
      justify: 0
      localPivot: {x: -0.05, y: 1.17}
      localSize: {x: 0, y: 0}
      anchor: 9
    _mat: {fileID: 2100000, guid: b1d4162e0ec6104448108c6249984df7, type: 2}
    manualUV: 0
    elementGroup: 0
    textureGroup: 1
  - _indices: 100000001100000013000000110000001200000013000000
    _distinctIndices: 10000000110000001300000012000000
    _edges:
    - x: 16
      y: 17
    - x: 19
      y: 16
    - x: 17
      y: 18
    - x: 18
      y: 19
    _smoothingGroup: 0
    _uv:
      useWorldSpace: 0
      flipU: 0
      flipV: 0
      swapUV: 0
      fill: 1
      scale: {x: 1, y: 1}
      offset: {x: 0, y: 0}
      rotation: 0
      justify: 0
      localPivot: {x: -0.67, y: 0.465033}
      localSize: {x: 0, y: 0}
      anchor: 9
    _mat: {fileID: 2100000, guid: b1d4162e0ec6104448108c6249984df7, type: 2}
    manualUV: 0
    elementGroup: 0
    textureGroup: -1
  - _indices: 170000001400000016000000140000001500000016000000
    _distinctIndices: 17000000140000001600000015000000
    _edges:
    - x: 23
      y: 20
    - x: 22
      y: 23
    - x: 20
      y: 21
    - x: 21
      y: 22
    _smoothingGroup: 0
    _uv:
      useWorldSpace: 0
      flipU: 0
      flipV: 0
      swapUV: 0
      fill: 1
      scale: {x: 1, y: 1}
      offset: {x: 0, y: 0}
      rotation: 0
      justify: 0
      localPivot: {x: -0.67, y: 1.635033}
      localSize: {x: 0, y: 0}
      anchor: 9
    _mat: {fileID: 2100000, guid: b1d4162e0ec6104448108c6249984df7, type: 2}
    manualUV: 0
    elementGroup: 0
    textureGroup: -1
  - _indices: 1a0000001b000000180000001a0000001800000019000000
    _distinctIndices: 1a0000001b0000001800000019000000
    _edges:
    - x: 26
      y: 27
    - x: 27
      y: 24
    - x: 24
      y: 25
    - x: 25
      y: 26
    _smoothingGroup: 0
    _uv:
      useWorldSpace: 0
      flipU: 0
      flipV: 0
      swapUV: 0
      fill: 1
      scale: {x: 1, y: 1}
      offset: {x: 0, y: 0}
      rotation: 0
      justify: 0
      localPivot: {x: -0.05, y: 1.17}
      localSize: {x: 0, y: 0}
      anchor: 9
    _mat: {fileID: 2100000, guid: b1d4162e0ec6104448108c6249984df7, type: 2}
    manualUV: 0
    elementGroup: 0
    textureGroup: 3
  - _indices: 1d0000001e0000001f0000001d0000001f0000001c000000
    _distinctIndices: 1d0000001e0000001f0000001c000000
    _edges:
    - x: 29
      y: 30
    - x: 30
      y: 31
    - x: 31
      y: 28
    - x: 28
      y: 29
    _smoothingGroup: 0
    _uv:
      useWorldSpace: 0
      flipU: 0
      flipV: 0
      swapUV: 0
      fill: 1
      scale: {x: 1, y: 1}
      offset: {x: 0, y: 0}
      rotation: 0
      justify: 0
      localPivot: {x: -0.05, y: 1.17}
      localSize: {x: 0, y: 0}
      anchor: 9
    _mat: {fileID: 2100000, guid: b1d4162e0ec6104448108c6249984df7, type: 2}
    manualUV: 0
    elementGroup: 0
    textureGroup: 3
  - _indices: 220000002300000020000000220000002000000021000000
    _distinctIndices: 22000000230000002000000021000000
    _edges:
    - x: 34
      y: 35
    - x: 35
      y: 32
    - x: 32
      y: 33
    - x: 33
      y: 34
    _smoothingGroup: 0
    _uv:
      useWorldSpace: 0
      flipU: 0
      flipV: 0
      swapUV: 0
      fill: 1
      scale: {x: 1, y: 1}
      offset: {x: 0, y: 0}
      rotation: 0
      justify: 0
      localPivot: {x: 0.67, y: 0.465033}
      localSize: {x: 0, y: 0}
      anchor: 9
    _mat: {fileID: 2100000, guid: b1d4162e0ec6104448108c6249984df7, type: 2}
    manualUV: 0
    elementGroup: 0
    textureGroup: -1
  - _indices: 250000002600000027000000250000002700000024000000
    _distinctIndices: 25000000260000002700000024000000
    _edges:
    - x: 37
      y: 38
    - x: 38
      y: 39
    - x: 39
      y: 36
    - x: 36
      y: 37
    _smoothingGroup: 0
    _uv:
      useWorldSpace: 0
      flipU: 0
      flipV: 0
      swapUV: 0
      fill: 1
      scale: {x: 1, y: 1}
      offset: {x: 0, y: 0}
      rotation: 0
      justify: 0
      localPivot: {x: 0.67, y: 1.6350329}
      localSize: {x: 0, y: 0}
      anchor: 9
    _mat: {fileID: 2100000, guid: b1d4162e0ec6104448108c6249984df7, type: 2}
    manualUV: 0
    elementGroup: 0
    textureGroup: -1
  - _indices: 28000000290000002a000000290000002b0000002a000000
    _distinctIndices: 28000000290000002a0000002b000000
    _edges:
    - x: 40
      y: 41
    - x: 42
      y: 40
    - x: 41
      y: 43
    - x: 43
      y: 42
    _smoothingGroup: 0
    _uv:
      useWorldSpace: 0
      flipU: 0
      flipV: 0
      swapUV: 0
      fill: 1
      scale: {x: 1, y: 1}
      offset: {x: 0, y: 0}
      rotation: 0
      justify: 0
      localPivot: {x: 0.67, y: 2.304749}
      localSize: {x: 0, y: 0}
      anchor: 9
    _mat: {fileID: 2100000, guid: b1d4162e0ec6104448108c6249984df7, type: 2}
    manualUV: 0
    elementGroup: -1
    textureGroup: -1
  - _indices: 2c0000002d0000002e0000002d0000002f0000002e000000
    _distinctIndices: 2c0000002d0000002e0000002f000000
    _edges:
    - x: 44
      y: 45
    - x: 46
      y: 44
    - x: 45
      y: 47
    - x: 47
      y: 46
    _smoothingGroup: 0
    _uv:
      useWorldSpace: 0
      flipU: 0
      flipV: 0
      swapUV: 0
      fill: 1
      scale: {x: 1, y: 1}
      offset: {x: 0, y: 0}
      rotation: 0
      justify: 0
      localPivot: {x: 1.3064985, y: 1.6350329}
      localSize: {x: 0, y: 0}
      anchor: 9
    _mat: {fileID: 2100000, guid: b1d4162e0ec6104448108c6249984df7, type: 2}
    manualUV: 0
    elementGroup: -1
    textureGroup: -1
  - _indices: 300000003100000032000000310000003300000032000000
    _distinctIndices: 30000000310000003200000033000000
    _edges:
    - x: 48
      y: 49
    - x: 50
      y: 48
    - x: 49
      y: 51
    - x: 51
      y: 50
    _smoothingGroup: 0
    _uv:
      useWorldSpace: 0
      flipU: 0
      flipV: 0
      swapUV: 0
      fill: 1
      scale: {x: 1, y: 1}
      offset: {x: 0, y: 0}
      rotation: 0
      justify: 0
      localPivot: {x: 0.67, y: 0.96531343}
      localSize: {x: 0, y: 0}
      anchor: 9
    _mat: {fileID: 2100000, guid: b1d4162e0ec6104448108c6249984df7, type: 2}
    manualUV: 0
    elementGroup: -1
    textureGroup: -1
  - _indices: 340000003500000036000000350000003700000036000000
    _distinctIndices: 34000000350000003600000037000000
    _edges:
    - x: 52
      y: 53
    - x: 54
      y: 52
    - x: 53
      y: 55
    - x: 55
      y: 54
    _smoothingGroup: 0
    _uv:
      useWorldSpace: 0
      flipU: 0
      flipV: 0
      swapUV: 0
      fill: 1
      scale: {x: 1, y: 1}
      offset: {x: 0, y: 0}
      rotation: 0
      justify: 0
      localPivot: {x: 0.033500053, y: 1.6350329}
      localSize: {x: 0, y: 0}
      anchor: 9
    _mat: {fileID: 2100000, guid: b1d4162e0ec6104448108c6249984df7, type: 2}
    manualUV: 0
    elementGroup: -1
    textureGroup: -1
  - _indices: 38000000390000003a000000390000003b0000003a000000
    _distinctIndices: 38000000390000003a0000003b000000
    _edges:
    - x: 56
      y: 57
    - x: 58
      y: 56
    - x: 57
      y: 59
    - x: 59
      y: 58
    _smoothingGroup: 0
    _uv:
      useWorldSpace: 0
      flipU: 0
      flipV: 0
      swapUV: 0
      fill: 1
      scale: {x: 1, y: 1}
      offset: {x: 0, y: 0}
      rotation: 0
      justify: 0
      localPivot: {x: 0.67, y: 0.90681213}
      localSize: {x: 0, y: 0}
      anchor: 9
    _mat: {fileID: 2100000, guid: b1d4162e0ec6104448108c6249984df7, type: 2}
    manualUV: 0
    elementGroup: -1
    textureGroup: -1
  - _indices: 3c0000003d0000003e0000003d0000003f0000003e000000
    _distinctIndices: 3c0000003d0000003e0000003f000000
    _edges:
    - x: 60
      y: 61
    - x: 62
      y: 60
    - x: 61
      y: 63
    - x: 63
      y: 62
    _smoothingGroup: 0
    _uv:
      useWorldSpace: 0
      flipU: 0
      flipV: 0
      swapUV: 0
      fill: 1
      scale: {x: 1, y: 1}
      offset: {x: 0, y: 0}
      rotation: 0
      justify: 0
      localPivot: {x: 1.3064985, y: 0.465033}
      localSize: {x: 0, y: 0}
      anchor: 9
    _mat: {fileID: 2100000, guid: b1d4162e0ec6104448108c6249984df7, type: 2}
    manualUV: 0
    elementGroup: -1
    textureGroup: -1
  - _indices: 400000004100000042000000410000004300000042000000
    _distinctIndices: 40000000410000004200000043000000
    _edges:
    - x: 64
      y: 65
    - x: 66
      y: 64
    - x: 65
      y: 67
    - x: 67
      y: 66
    _smoothingGroup: 0
    _uv:
      useWorldSpace: 0
      flipU: 0
      flipV: 0
      swapUV: 0
      fill: 1
      scale: {x: 1, y: 1}
      offset: {x: 0, y: 0}
      rotation: 0
      justify: 0
      localPivot: {x: 0.67, y: 0.023251707}
      localSize: {x: 0, y: 0}
      anchor: 9
    _mat: {fileID: 2100000, guid: b1d4162e0ec6104448108c6249984df7, type: 2}
    manualUV: 0
    elementGroup: -1
    textureGroup: -1
  - _indices: 440000004500000046000000450000004700000046000000
    _distinctIndices: 44000000450000004600000047000000
    _edges:
    - x: 68
      y: 69
    - x: 70
      y: 68
    - x: 69
      y: 71
    - x: 71
      y: 70
    _smoothingGroup: 0
    _uv:
      useWorldSpace: 0
      flipU: 0
      flipV: 0
      swapUV: 0
      fill: 1
      scale: {x: 1, y: 1}
      offset: {x: 0, y: 0}
      rotation: 0
      justify: 0
      localPivot: {x: 0.033500053, y: 0.465033}
      localSize: {x: 0, y: 0}
      anchor: 9
    _mat: {fileID: 2100000, guid: b1d4162e0ec6104448108c6249984df7, type: 2}
    manualUV: 0
    elementGroup: -1
    textureGroup: -1
  - _indices: 48000000490000004a000000490000004b0000004a000000
    _distinctIndices: 48000000490000004a0000004b000000
    _edges:
    - x: 72
      y: 73
    - x: 74
      y: 72
    - x: 73
      y: 75
    - x: 75
      y: 74
    _smoothingGroup: 0
    _uv:
      useWorldSpace: 0
      flipU: 0
      flipV: 0
      swapUV: 0
      fill: 1
      scale: {x: 1, y: 1}
      offset: {x: 0, y: 0}
      rotation: 0
      justify: 0
      localPivot: {x: -0.67, y: 0.9654553}
      localSize: {x: 0, y: 0}
      anchor: 9
    _mat: {fileID: 2100000, guid: b1d4162e0ec6104448108c6249984df7, type: 2}
    manualUV: 0
    elementGroup: -1
    textureGroup: -1
  - _indices: 4c0000004d0000004e0000004d0000004f0000004e000000
    _distinctIndices: 4c0000004d0000004e0000004f000000
    _edges:
    - x: 76
      y: 77
    - x: 78
      y: 76
    - x: 77
      y: 79
    - x: 79
      y: 78
    _smoothingGroup: 0
    _uv:
      useWorldSpace: 0
      flipU: 0
      flipV: 0
      swapUV: 0
      fill: 1
      scale: {x: 1, y: 1}
      offset: {x: 0, y: 0}
      rotation: 0
      justify: 0
      localPivot: {x: -0.03364925, y: 1.6350329}
      localSize: {x: 0, y: 0}
      anchor: 9
    _mat: {fileID: 2100000, guid: b1d4162e0ec6104448108c6249984df7, type: 2}
    manualUV: 0
    elementGroup: -1
    textureGroup: -1
  - _indices: 500000005100000052000000510000005300000052000000
    _distinctIndices: 50000000510000005200000053000000
    _edges:
    - x: 80
      y: 81
    - x: 82
      y: 80
    - x: 81
      y: 83
    - x: 83
      y: 82
    _smoothingGroup: 0
    _uv:
      useWorldSpace: 0
      flipU: 0
      flipV: 0
      swapUV: 0
      fill: 1
      scale: {x: 1, y: 1}
      offset: {x: 0, y: 0}
      rotation: 0
      justify: 0
      localPivot: {x: -1.3063493, y: 1.6350329}
      localSize: {x: 0, y: 0}
      anchor: 9
    _mat: {fileID: 2100000, guid: b1d4162e0ec6104448108c6249984df7, type: 2}
    manualUV: 0
    elementGroup: -1
    textureGroup: -1
  - _indices: 540000005500000056000000550000005700000056000000
    _distinctIndices: 54000000550000005600000057000000
    _edges:
    - x: 84
      y: 85
    - x: 86
      y: 84
    - x: 85
      y: 87
    - x: 87
      y: 86
    _smoothingGroup: 0
    _uv:
      useWorldSpace: 0
      flipU: 0
      flipV: 0
      swapUV: 0
      fill: 1
      scale: {x: 1, y: 1}
      offset: {x: 0, y: 0}
      rotation: 0
      justify: 0
      localPivot: {x: -0.67, y: 2.3046074}
      localSize: {x: 0, y: 0}
      anchor: 9
    _mat: {fileID: 2100000, guid: b1d4162e0ec6104448108c6249984df7, type: 2}
    manualUV: 0
    elementGroup: -1
    textureGroup: -1
  - _indices: 58000000590000005a000000590000005b0000005a000000
    _distinctIndices: 58000000590000005a0000005b000000
    _edges:
    - x: 88
      y: 89
    - x: 90
      y: 88
    - x: 89
      y: 91
    - x: 91
      y: 90
    _smoothingGroup: 0
    _uv:
      useWorldSpace: 0
      flipU: 0
      flipV: 0
      swapUV: 0
      fill: 1
      scale: {x: 1, y: 1}
      offset: {x: 0, y: 0}
      rotation: 0
      justify: 0
      localPivot: {x: -0.67, y: 0.02346672}
      localSize: {x: 0, y: 0}
      anchor: 9
    _mat: {fileID: 2100000, guid: b1d4162e0ec6104448108c6249984df7, type: 2}
    manualUV: 0
    elementGroup: -1
    textureGroup: -1
  - _indices: 5c0000005d0000005e0000005d0000005f0000005e000000
    _distinctIndices: 5c0000005d0000005e0000005f000000
    _edges:
    - x: 92
      y: 93
    - x: 94
      y: 92
    - x: 93
      y: 95
    - x: 95
      y: 94
    _smoothingGroup: 0
    _uv:
      useWorldSpace: 0
      flipU: 0
      flipV: 0
      swapUV: 0
      fill: 1
      scale: {x: 1, y: 1}
      offset: {x: 0, y: 0}
      rotation: 0
      justify: 0
      localPivot: {x: -0.03364925, y: 0.465033}
      localSize: {x: 0, y: 0}
      anchor: 9
    _mat: {fileID: 2100000, guid: b1d4162e0ec6104448108c6249984df7, type: 2}
    manualUV: 0
    elementGroup: -1
    textureGroup: -1
  - _indices: 600000006100000062000000610000006300000062000000
    _distinctIndices: 60000000610000006200000063000000
    _edges:
    - x: 96
      y: 97
    - x: 98
      y: 96
    - x: 97
      y: 99
    - x: 99
      y: 98
    _smoothingGroup: 0
    _uv:
      useWorldSpace: 0
      flipU: 0
      flipV: 0
      swapUV: 0
      fill: 1
      scale: {x: 1, y: 1}
      offset: {x: 0, y: 0}
      rotation: 0
      justify: 0
      localPivot: {x: -1.3063493, y: 0.465033}
      localSize: {x: 0, y: 0}
      anchor: 9
    _mat: {fileID: 2100000, guid: b1d4162e0ec6104448108c6249984df7, type: 2}
    manualUV: 0
    elementGroup: -1
    textureGroup: -1
  - _indices: 640000006500000066000000650000006700000066000000
    _distinctIndices: 64000000650000006600000067000000
    _edges:
    - x: 100
      y: 101
    - x: 102
      y: 100
    - x: 101
      y: 103
    - x: 103
      y: 102
    _smoothingGroup: 0
    _uv:
      useWorldSpace: 0
      flipU: 0
      flipV: 0
      swapUV: 0
      fill: 1
      scale: {x: 1, y: 1}
      offset: {x: 0, y: 0}
      rotation: 0
      justify: 0
      localPivot: {x: -0.67, y: 0.90659714}
      localSize: {x: 0, y: 0}
      anchor: 9
    _mat: {fileID: 2100000, guid: b1d4162e0ec6104448108c6249984df7, type: 2}
    manualUV: 0
    elementGroup: -1
    textureGroup: -1
  - _indices: 68000000690000006a000000690000006b0000006a000000
    _distinctIndices: 68000000690000006a0000006b000000
    _edges:
    - x: 104
      y: 105
    - x: 106
      y: 104
    - x: 105
      y: 107
    - x: 107
      y: 106
    _smoothingGroup: 0
    _uv:
      useWorldSpace: 0
      flipU: 0
      flipV: 0
      swapUV: 0
      fill: 1
      scale: {x: 1, y: 1}
      offset: {x: 0, y: 0}
      rotation: 0
      justify: 0
      localPivot: {x: -0.0140893245, y: -0.67}
      localSize: {x: 0, y: 0}
      anchor: 9
    _mat: {fileID: 2100000, guid: b1d4162e0ec6104448108c6249984df7, type: 2}
    manualUV: 0
    elementGroup: -1
    textureGroup: -1
  - _indices: 6c0000006d0000006e0000006d0000006f0000006e000000
    _distinctIndices: 6c0000006d0000006e0000006f000000
    _edges:
    - x: 108
      y: 109
    - x: 110
      y: 108
    - x: 109
      y: 111
    - x: 111
      y: 110
    _smoothingGroup: 0
    _uv:
      useWorldSpace: 0
      flipU: 0
      flipV: 0
      swapUV: 0
      fill: 1
      scale: {x: 1, y: 1}
      offset: {x: 0, y: 0}
      rotation: 0
      justify: 0
      localPivot: {x: -0.0140893245, y: 1.6350329}
      localSize: {x: 0, y: 0}
      anchor: 9
    _mat: {fileID: 2100000, guid: b1d4162e0ec6104448108c6249984df7, type: 2}
    manualUV: 0
    elementGroup: -1
    textureGroup: -1
  - _indices: 700000007100000072000000710000007300000072000000
    _distinctIndices: 70000000710000007200000073000000
    _edges:
    - x: 112
      y: 113
    - x: 114
      y: 112
    - x: 113
      y: 115
    - x: 115
      y: 114
    _smoothingGroup: 0
    _uv:
      useWorldSpace: 0
      flipU: 0
      flipV: 0
      swapUV: 0
      fill: 1
      scale: {x: 1, y: 1}
      offset: {x: 0, y: 0}
      rotation: 0
      justify: 0
      localPivot: {x: 0.0140893245, y: -0.67}
      localSize: {x: 0, y: 0}
      anchor: 9
    _mat: {fileID: 2100000, guid: b1d4162e0ec6104448108c6249984df7, type: 2}
    manualUV: 0
    elementGroup: -1
    textureGroup: -1
  - _indices: 740000007500000076000000750000007700000076000000
    _distinctIndices: 74000000750000007600000077000000
    _edges:
    - x: 116
      y: 117
    - x: 118
      y: 116
    - x: 117
      y: 119
    - x: 119
      y: 118
    _smoothingGroup: 0
    _uv:
      useWorldSpace: 0
      flipU: 0
      flipV: 0
      swapUV: 0
      fill: 1
      scale: {x: 1, y: 1}
      offset: {x: 0, y: 0}
      rotation: 0
      justify: 0
      localPivot: {x: 0.0140893245, y: 1.6350329}
      localSize: {x: 0, y: 0}
      anchor: 9
    _mat: {fileID: 2100000, guid: b1d4162e0ec6104448108c6249984df7, type: 2}
    manualUV: 0
    elementGroup: -1
    textureGroup: -1
  - _indices: 78000000790000007a000000790000007b0000007a000000
    _distinctIndices: 78000000790000007a0000007b000000
    _edges:
    - x: 120
      y: 121
    - x: 122
      y: 120
    - x: 121
      y: 123
    - x: 123
      y: 122
    _smoothingGroup: 0
    _uv:
      useWorldSpace: 0
      flipU: 0
      flipV: 0
      swapUV: 0
      fill: 1
      scale: {x: 1, y: 1}
      offset: {x: 0, y: 0}
      rotation: 0
      justify: 0
      localPivot: {x: -0.013631548, y: -0.67}
      localSize: {x: 0, y: 0}
      anchor: 9
    _mat: {fileID: 2100000, guid: b1d4162e0ec6104448108c6249984df7, type: 2}
    manualUV: 0
    elementGroup: -1
    textureGroup: -1
  - _indices: 7c0000007d0000007e0000007d0000007f0000007e000000
    _distinctIndices: 7c0000007d0000007e0000007f000000
    _edges:
    - x: 124
      y: 125
    - x: 126
      y: 124
    - x: 125
      y: 127
    - x: 127
      y: 126
    _smoothingGroup: 0
    _uv:
      useWorldSpace: 0
      flipU: 0
      flipV: 0
      swapUV: 0
      fill: 1
      scale: {x: 1, y: 1}
      offset: {x: 0, y: 0}
      rotation: 0
      justify: 0
      localPivot: {x: -0.013631548, y: 0.465033}
      localSize: {x: 0, y: 0}
      anchor: 9
    _mat: {fileID: 2100000, guid: b1d4162e0ec6104448108c6249984df7, type: 2}
    manualUV: 0
    elementGroup: -1
    textureGroup: -1
  - _indices: 800000008100000082000000810000008300000082000000
    _distinctIndices: 80000000810000008200000083000000
    _edges:
    - x: 128
      y: 129
    - x: 130
      y: 128
    - x: 129
      y: 131
    - x: 131
      y: 130
    _smoothingGroup: 0
    _uv:
      useWorldSpace: 0
      flipU: 0
      flipV: 0
      swapUV: 0
      fill: 1
      scale: {x: 1, y: 1}
      offset: {x: 0, y: 0}
      rotation: 0
      justify: 0
      localPivot: {x: 0.013631548, y: -0.67}
      localSize: {x: 0, y: 0}
      anchor: 9
    _mat: {fileID: 2100000, guid: b1d4162e0ec6104448108c6249984df7, type: 2}
    manualUV: 0
    elementGroup: -1
    textureGroup: -1
  - _indices: 840000008500000086000000850000008700000086000000
    _distinctIndices: 84000000850000008600000087000000
    _edges:
    - x: 132
      y: 133
    - x: 134
      y: 132
    - x: 133
      y: 135
    - x: 135
      y: 134
    _smoothingGroup: 0
    _uv:
      useWorldSpace: 0
      flipU: 0
      flipV: 0
      swapUV: 0
      fill: 1
      scale: {x: 1, y: 1}
      offset: {x: 0, y: 0}
      rotation: 0
      justify: 0
      localPivot: {x: 0.013631548, y: 0.465033}
      localSize: {x: 0, y: 0}
      anchor: 9
    _mat: {fileID: 2100000, guid: b1d4162e0ec6104448108c6249984df7, type: 2}
    manualUV: 0
    elementGroup: -1
    textureGroup: -1
  - _indices: 88000000890000008a000000890000008b0000008a000000
    _distinctIndices: 88000000890000008a0000008b000000
    _edges:
    - x: 136
      y: 137
    - x: 138
      y: 136
    - x: 137
      y: 139
    - x: 139
      y: 138
    _smoothingGroup: 0
    _uv:
      useWorldSpace: 0
      flipU: 0
      flipV: 0
      swapUV: 0
      fill: 1
      scale: {x: 1, y: 1}
      offset: {x: 0, y: 0}
      rotation: 0
      justify: 0
      localPivot: {x: 0.087966815, y: -0.67}
      localSize: {x: 0, y: 0}
      anchor: 9
    _mat: {fileID: 2100000, guid: b1d4162e0ec6104448108c6249984df7, type: 2}
    manualUV: 0
    elementGroup: -1
    textureGroup: -1
  - _indices: 8c0000008d0000008e0000008d0000008f0000008e000000
    _distinctIndices: 8c0000008d0000008e0000008f000000
    _edges:
    - x: 140
      y: 141
    - x: 142
      y: 140
    - x: 141
      y: 143
    - x: 143
      y: 142
    _smoothingGroup: 0
    _uv:
      useWorldSpace: 0
      flipU: 0
      flipV: 0
      swapUV: 0
      fill: 1
      scale: {x: 1, y: 1}
      offset: {x: 0, y: 0}
      rotation: 0
      justify: 0
      localPivot: {x: 0.087966815, y: 1.635033}
      localSize: {x: 0, y: 0}
      anchor: 9
    _mat: {fileID: 2100000, guid: b1d4162e0ec6104448108c6249984df7, type: 2}
    manualUV: 0
    elementGroup: -1
    textureGroup: -1
  - _indices: 900000009100000092000000910000009300000092000000
    _distinctIndices: 90000000910000009200000093000000
    _edges:
    - x: 144
      y: 145
    - x: 146
      y: 144
    - x: 145
      y: 147
    - x: 147
      y: 146
    _smoothingGroup: 0
    _uv:
      useWorldSpace: 0
      flipU: 0
      flipV: 0
      swapUV: 0
      fill: 1
      scale: {x: 1, y: 1}
      offset: {x: 0, y: 0}
      rotation: 0
      justify: 0
      localPivot: {x: -0.087966815, y: 1.635033}
      localSize: {x: 0, y: 0}
      anchor: 9
    _mat: {fileID: 2100000, guid: b1d4162e0ec6104448108c6249984df7, type: 2}
    manualUV: 0
    elementGroup: -1
    textureGroup: -1
  - _indices: 940000009500000096000000950000009700000096000000
    _distinctIndices: 94000000950000009600000097000000
    _edges:
    - x: 148
      y: 149
    - x: 150
      y: 148
    - x: 149
      y: 151
    - x: 151
      y: 150
    _smoothingGroup: 0
    _uv:
      useWorldSpace: 0
      flipU: 0
      flipV: 0
      swapUV: 0
      fill: 1
      scale: {x: 1, y: 1}
      offset: {x: 0, y: 0}
      rotation: 0
      justify: 0
      localPivot: {x: -0.087966815, y: -0.67}
      localSize: {x: 0, y: 0}
      anchor: 9
    _mat: {fileID: 2100000, guid: b1d4162e0ec6104448108c6249984df7, type: 2}
    manualUV: 0
    elementGroup: -1
    textureGroup: -1
  - _indices: 98000000990000009a000000990000009b0000009a000000
    _distinctIndices: 98000000990000009a0000009b000000
    _edges:
    - x: 152
      y: 153
    - x: 154
      y: 152
    - x: 153
      y: 155
    - x: 155
      y: 154
    _smoothingGroup: 0
    _uv:
      useWorldSpace: 0
      flipU: 0
      flipV: 0
      swapUV: 0
      fill: 1
      scale: {x: 1, y: 1}
      offset: {x: 0, y: 0}
      rotation: 0
      justify: 0
      localPivot: {x: 0.08785619, y: -0.67}
      localSize: {x: 0, y: 0}
      anchor: 9
    _mat: {fileID: 2100000, guid: b1d4162e0ec6104448108c6249984df7, type: 2}
    manualUV: 0
    elementGroup: -1
    textureGroup: -1
  - _indices: 9c0000009d0000009e0000009d0000009f0000009e000000
    _distinctIndices: 9c0000009d0000009e0000009f000000
    _edges:
    - x: 156
      y: 157
    - x: 158
      y: 156
    - x: 157
      y: 159
    - x: 159
      y: 158
    _smoothingGroup: 0
    _uv:
      useWorldSpace: 0
      flipU: 0
      flipV: 0
      swapUV: 0
      fill: 1
      scale: {x: 1, y: 1}
      offset: {x: 0, y: 0}
      rotation: 0
      justify: 0
      localPivot: {x: 0.08785619, y: 0.465033}
      localSize: {x: 0, y: 0}
      anchor: 9
    _mat: {fileID: 2100000, guid: b1d4162e0ec6104448108c6249984df7, type: 2}
    manualUV: 0
    elementGroup: -1
    textureGroup: -1
  - _indices: a0000000a1000000a2000000a1000000a3000000a2000000
    _distinctIndices: a0000000a1000000a2000000a3000000
    _edges:
    - x: 160
      y: 161
    - x: 162
      y: 160
    - x: 161
      y: 163
    - x: 163
      y: 162
    _smoothingGroup: 0
    _uv:
      useWorldSpace: 0
      flipU: 0
      flipV: 0
      swapUV: 0
      fill: 1
      scale: {x: 1, y: 1}
      offset: {x: 0, y: 0}
      rotation: 0
      justify: 0
      localPivot: {x: -0.08785619, y: 0.465033}
      localSize: {x: 0, y: 0}
      anchor: 9
    _mat: {fileID: 2100000, guid: b1d4162e0ec6104448108c6249984df7, type: 2}
    manualUV: 0
    elementGroup: -1
    textureGroup: -1
  - _indices: a4000000a5000000a6000000a5000000a7000000a6000000
    _distinctIndices: a4000000a5000000a6000000a7000000
    _edges:
    - x: 164
      y: 165
    - x: 166
      y: 164
    - x: 165
      y: 167
    - x: 167
      y: 166
    _smoothingGroup: 0
    _uv:
      useWorldSpace: 0
      flipU: 0
      flipV: 0
      swapUV: 0
      fill: 1
      scale: {x: 1, y: 1}
      offset: {x: 0, y: 0}
      rotation: 0
      justify: 0
      localPivot: {x: -0.08785619, y: -0.67}
      localSize: {x: 0, y: 0}
      anchor: 9
    _mat: {fileID: 2100000, guid: b1d4162e0ec6104448108c6249984df7, type: 2}
    manualUV: 0
    elementGroup: -1
    textureGroup: -1
  _sharedIndices:
  - array: 000000000e0000002800000035000000
  - array: 250000006a00000077000000
  - array: 2a000000370000006800000075000000
  - array: 010000000d0000004c00000055000000
  - array: 160000008e00000097000000
  - array: 4e000000570000008c00000095000000
  - array: 020000001d000000290000002c000000
  - array: 260000006b0000006e000000
  - array: 2b0000002e000000690000006c000000
  - array: 030000001e0000005100000054000000
  - array: 150000009300000096000000
  - array: 53000000560000009100000094000000
  - array: 04000000190000003d00000040000000
  - array: 200000007f00000082000000
  - array: 3f000000420000007d00000080000000
  - array: 05000000180000005900000060000000
  - array: 110000009b000000a2000000
  - array: 5b0000006200000099000000a0000000
  - array: 06000000080000004100000044000000
  - array: 210000008300000086000000
  - array: 43000000460000008100000084000000
  - array: 0700000009000000580000005d000000
  - array: 100000009a0000009f000000
  - array: 5a0000005f000000980000009d000000
  - array: 0a0000000c000000480000004d0000005c00000065000000
  - array: 130000009e000000a7000000
  - array: 5e000000670000009c000000a5000000
  - array: 170000008a0000008f000000
  - array: 4a0000004f000000880000008d000000
  - array: 0b0000000f00000031000000340000003800000045000000
  - array: 220000007a00000087000000
  - array: 3a000000470000007800000085000000
  - array: 240000007300000076000000
  - array: 33000000360000007100000074000000
  - array: 12000000a3000000a6000000
  - array: 6300000066000000a1000000a4000000
  - array: 1b0000001f00000049000000500000006100000064000000
  - array: 140000008b00000092000000
  - array: 4b000000520000008900000090000000
  - array: 1a0000001c0000002d00000030000000390000003c000000
  - array: 230000007b0000007e000000
  - array: 3b0000003e000000790000007c000000
  - array: 270000006f00000072000000
  - array: 2f000000320000006d00000070000000
  _vertices:
  - {x: 0, y: 2.34, z: 0}
  - {x: 0.1, y: 2.34, z: 0}
  - {x: 0, y: 2.34, z: -1.34}
  - {x: 0.1, y: 2.34, z: -1.34}
  - {x: 0, y: 0, z: -1.34}
  - {x: 0.1, y: 0, z: -1.34}
  - {x: 0, y: 0, z: 0}
  - {x: 0.1, y: 0, z: 0}
  - {x: 0, y: 0, z: 0}
  - {x: 0.1, y: 0, z: 0}
  - {x: 0.1, y: 0.930066, z: 0}
  - {x: 0, y: 0.930066, z: 0}
  - {x: 0.1, y: 0.930066, z: 0}
  - {x: 0.1, y: 2.34, z: 0}
  - {x: 0, y: 2.34, z: 0}
  - {x: 0, y: 0.930066, z: 0}
  - {x: 0.07561237, y: 0.046503246, z: -0.06699991}
  - {x: 0.07561237, y: 0.046503246, z: -1.2730001}
  - {x: 0.07561237, y: 0.88356274, z: -1.2730001}
  - {x: 0.07561237, y: 0.88356274, z: -0.06699991}
  - {x: 0.075833626, y: 1.0005627, z: -1.2730001}
  - {x: 0.075833626, y: 2.2695034, z: -1.2730001}
  - {x: 0.075833626, y: 2.2695034, z: -0.06699991}
  - {x: 0.075833626, y: 1.0005627, z: -0.06699991}
  - {x: 0.1, y: 0, z: -1.34}
  - {x: 0, y: 0, z: -1.34}
  - {x: 0, y: 0.930066, z: -1.34}
  - {x: 0.1, y: 0.930066, z: -1.34}
  - {x: 0, y: 0.930066, z: -1.34}
  - {x: 0, y: 2.34, z: -1.34}
  - {x: 0.1, y: 2.34, z: -1.34}
  - {x: 0.1, y: 0.930066, z: -1.34}
  - {x: 0.027363095, y: 0.046503305, z: -1.273}
  - {x: 0.027363095, y: 0.046503305, z: -0.06700003}
  - {x: 0.027363095, y: 0.8835627, z: -0.06700003}
  - {x: 0.027363095, y: 0.8835627, z: -1.273}
  - {x: 0.028278649, y: 1.0005627, z: -0.06700003}
  - {x: 0.028278649, y: 2.269503, z: -0.06700003}
  - {x: 0.028278649, y: 2.269503, z: -1.273}
  - {x: 0.028278649, y: 1.0005627, z: -1.273}
  - {x: 0, y: 2.34, z: 0}
  - {x: 0, y: 2.34, z: -1.34}
  - {x: -0.0001, y: 2.269503, z: -0.06700003}
  - {x: -0.0001, y: 2.269503, z: -1.273}
  - {x: 0, y: 2.34, z: -1.34}
  - {x: 0, y: 0.930066, z: -1.34}
  - {x: -0.0001, y: 2.269503, z: -1.273}
  - {x: -0.0001, y: 1.0005627, z: -1.273}
  - {x: 0, y: 0.930066, z: -1.34}
  - {x: 0, y: 0.930066, z: 0}
  - {x: -0.0001, y: 1.0005627, z: -1.273}
  - {x: -0.0001, y: 1.0005627, z: -0.06700003}
  - {x: 0, y: 0.930066, z: 0}
  - {x: 0, y: 2.34, z: 0}
  - {x: -0.0001, y: 1.0005627, z: -0.06700003}
  - {x: -0.0001, y: 2.269503, z: -0.06700003}
  - {x: 0, y: 0.930066, z: 0}
  - {x: 0, y: 0.930066, z: -1.34}
  - {x: -0.0001, y: 0.8835627, z: -0.06700003}
  - {x: -0.0001, y: 0.8835627, z: -1.273}
  - {x: 0, y: 0.930066, z: -1.34}
  - {x: 0, y: 0, z: -1.34}
  - {x: -0.0001, y: 0.8835627, z: -1.273}
  - {x: -0.0001, y: 0.046503305, z: -1.273}
  - {x: 0, y: 0, z: -1.34}
  - {x: 0, y: 0, z: 0}
  - {x: -0.0001, y: 0.046503305, z: -1.273}
  - {x: -0.0001, y: 0.046503305, z: -0.06700003}
  - {x: 0, y: 0, z: 0}
  - {x: 0, y: 0.930066, z: 0}
  - {x: -0.0001, y: 0.046503305, z: -0.06700003}
  - {x: -0.0001, y: 0.8835627, z: -0.06700003}
  - {x: 0.1, y: 0.930066, z: 0}
  - {x: 0.1, y: 0.930066, z: -1.34}
  - {x: 0.1001, y: 1.0005627, z: -0.06699991}
  - {x: 0.1001, y: 1.0005627, z: -1.2730001}
  - {x: 0.1, y: 2.34, z: 0}
  - {x: 0.1, y: 0.930066, z: 0}
  - {x: 0.1001, y: 2.2695034, z: -0.06699991}
  - {x: 0.1001, y: 1.0005627, z: -0.06699991}
  - {x: 0.1, y: 0.930066, z: -1.34}
  - {x: 0.1, y: 2.34, z: -1.34}
  - {x: 0.1001, y: 1.0005627, z: -1.2730001}
  - {x: 0.1001, y: 2.2695034, z: -1.2730001}
  - {x: 0.1, y: 2.34, z: -1.34}
  - {x: 0.1, y: 2.34, z: 0}
  - {x: 0.1001, y: 2.2695034, z: -1.2730001}
  - {x: 0.1001, y: 2.2695034, z: -0.06699991}
  - {x: 0.1, y: 0, z: 0}
  - {x: 0.1, y: 0, z: -1.34}
  - {x: 0.1001, y: 0.046503246, z: -0.06699991}
  - {x: 0.1001, y: 0.046503246, z: -1.2730001}
  - {x: 0.1, y: 0.930066, z: 0}
  - {x: 0.1, y: 0, z: 0}
  - {x: 0.1001, y: 0.88356274, z: -0.06699991}
  - {x: 0.1001, y: 0.046503246, z: -0.06699991}
  - {x: 0.1, y: 0, z: -1.34}
  - {x: 0.1, y: 0.930066, z: -1.34}
  - {x: 0.1001, y: 0.046503246, z: -1.2730001}
  - {x: 0.1001, y: 0.88356274, z: -1.2730001}
  - {x: 0.1, y: 0.930066, z: -1.34}
  - {x: 0.1, y: 0.930066, z: 0}
  - {x: 0.1001, y: 0.88356274, z: -1.2730001}
  - {x: 0.1001, y: 0.88356274, z: -0.06699991}
  - {x: -0.0001, y: 2.269503, z: -0.06700003}
  - {x: -0.0001, y: 2.269503, z: -1.273}
  - {x: 0.028278649, y: 2.269503, z: -0.06700003}
  - {x: 0.028278649, y: 2.269503, z: -1.273}
  - {x: -0.0001, y: 2.269503, z: -1.273}
  - {x: -0.0001, y: 1.0005627, z: -1.273}
  - {x: 0.028278649, y: 2.269503, z: -1.273}
  - {x: 0.028278649, y: 1.0005627, z: -1.273}
  - {x: -0.0001, y: 1.0005627, z: -1.273}
  - {x: -0.0001, y: 1.0005627, z: -0.06700003}
  - {x: 0.028278649, y: 1.0005627, z: -1.273}
  - {x: 0.028278649, y: 1.0005627, z: -0.06700003}
  - {x: -0.0001, y: 1.0005627, z: -0.06700003}
  - {x: -0.0001, y: 2.269503, z: -0.06700003}
  - {x: 0.028278649, y: 1.0005627, z: -0.06700003}
  - {x: 0.028278649, y: 2.269503, z: -0.06700003}
  - {x: -0.0001, y: 0.8835627, z: -0.06700003}
  - {x: -0.0001, y: 0.8835627, z: -1.273}
  - {x: 0.027363095, y: 0.8835627, z: -0.06700003}
  - {x: 0.027363095, y: 0.8835627, z: -1.273}
  - {x: -0.0001, y: 0.8835627, z: -1.273}
  - {x: -0.0001, y: 0.046503305, z: -1.273}
  - {x: 0.027363095, y: 0.8835627, z: -1.273}
  - {x: 0.027363095, y: 0.046503305, z: -1.273}
  - {x: -0.0001, y: 0.046503305, z: -1.273}
  - {x: -0.0001, y: 0.046503305, z: -0.06700003}
  - {x: 0.027363095, y: 0.046503305, z: -1.273}
  - {x: 0.027363095, y: 0.046503305, z: -0.06700003}
  - {x: -0.0001, y: 0.046503305, z: -0.06700003}
  - {x: -0.0001, y: 0.8835627, z: -0.06700003}
  - {x: 0.027363095, y: 0.046503305, z: -0.06700003}
  - {x: 0.027363095, y: 0.8835627, z: -0.06700003}
  - {x: 0.1001, y: 1.0005627, z: -0.06699991}
  - {x: 0.1001, y: 1.0005627, z: -1.2730001}
  - {x: 0.075833626, y: 1.0005627, z: -0.06699991}
  - {x: 0.075833626, y: 1.0005627, z: -1.2730001}
  - {x: 0.1001, y: 2.2695034, z: -0.06699991}
  - {x: 0.1001, y: 1.0005627, z: -0.06699991}
  - {x: 0.075833626, y: 2.2695034, z: -0.06699991}
  - {x: 0.075833626, y: 1.0005627, z: -0.06699991}
  - {x: 0.1001, y: 1.0005627, z: -1.2730001}
  - {x: 0.1001, y: 2.2695034, z: -1.2730001}
  - {x: 0.075833626, y: 1.0005627, z: -1.2730001}
  - {x: 0.075833626, y: 2.2695034, z: -1.2730001}
  - {x: 0.1001, y: 2.2695034, z: -1.2730001}
  - {x: 0.1001, y: 2.2695034, z: -0.06699991}
  - {x: 0.075833626, y: 2.2695034, z: -1.2730001}
  - {x: 0.075833626, y: 2.2695034, z: -0.06699991}
  - {x: 0.1001, y: 0.046503246, z: -0.06699991}
  - {x: 0.1001, y: 0.046503246, z: -1.2730001}
  - {x: 0.07561237, y: 0.046503246, z: -0.06699991}
  - {x: 0.07561237, y: 0.046503246, z: -1.2730001}
  - {x: 0.1001, y: 0.88356274, z: -0.06699991}
  - {x: 0.1001, y: 0.046503246, z: -0.06699991}
  - {x: 0.07561237, y: 0.88356274, z: -0.06699991}
  - {x: 0.07561237, y: 0.046503246, z: -0.06699991}
  - {x: 0.1001, y: 0.046503246, z: -1.2730001}
  - {x: 0.1001, y: 0.88356274, z: -1.2730001}
  - {x: 0.07561237, y: 0.046503246, z: -1.2730001}
  - {x: 0.07561237, y: 0.88356274, z: -1.2730001}
  - {x: 0.1001, y: 0.88356274, z: -1.2730001}
  - {x: 0.1001, y: 0.88356274, z: -0.06699991}
  - {x: 0.07561237, y: 0.88356274, z: -1.2730001}
  - {x: 0.07561237, y: 0.88356274, z: -0.06699991}
  _uv:
  - {x: 0, y: 0}
  - {x: 0.1, y: 0}
  - {x: 0, y: -1.34}
  - {x: 0.1, y: -1.34}
  - {x: 0, y: -1.34}
  - {x: -0.1, y: -1.34}
  - {x: 0, y: 0}
  - {x: -0.1, y: 0}
  - {x: 0, y: 0}
  - {x: -0.1, y: 0}
  - {x: -0.1, y: 0.930066}
  - {x: 0, y: 0.930066}
  - {x: -0.1, y: 0.930066}
  - {x: -0.1, y: 2.34}
  - {x: 0, y: 2.34}
  - {x: 0, y: 0.930066}
  - {x: -0.06699991, y: 0.046503246}
  - {x: -1.2730001, y: 0.046503246}
  - {x: -1.2730001, y: 0.88356274}
  - {x: -0.06699991, y: 0.88356274}
  - {x: -1.2730001, y: 1.0005627}
  - {x: -1.2730001, y: 2.2695034}
  - {x: -0.06699991, y: 2.2695034}
  - {x: -0.06699991, y: 1.0005627}
  - {x: -0.1, y: 0}
  - {x: 0, y: 0}
  - {x: 0, y: 0.930066}
  - {x: -0.1, y: 0.930066}
  - {x: 0, y: 0.930066}
  - {x: 0, y: 2.34}
  - {x: -0.1, y: 2.34}
  - {x: -0.1, y: 0.930066}
  - {x: 1.273, y: 0.046503305}
  - {x: 0.06700003, y: 0.046503305}
  - {x: 0.06700003, y: 0.8835627}
  - {x: 1.273, y: 0.8835627}
  - {x: 0.06700003, y: 1.0005627}
  - {x: 0.06700003, y: 2.269503}
  - {x: 1.273, y: 2.269503}
  - {x: 1.273, y: 1.0005627}
  - {x: 0, y: 2.3399975}
  - {x: 1.34, y: 2.3399975}
  - {x: 0.06700003, y: 2.2695007}
  - {x: 1.273, y: 2.2695007}
  - {x: 1.3399986, y: 2.34}
  - {x: 1.3399986, y: 0.930066}
  - {x: 1.2729985, y: 2.269503}
  - {x: 1.2729985, y: 1.0005627}
  - {x: 1.34, y: 0.93006504}
  - {x: 0, y: 0.93006504}
  - {x: 1.273, y: 1.0005618}
  - {x: 0.06700003, y: 1.0005618}
  - {x: 0, y: 0.930066}
  - {x: 0, y: 2.34}
  - {x: 0.067000106, y: 1.0005627}
  - {x: 0.067000106, y: 2.269503}
  - {x: 0, y: 0.93006384}
  - {x: 1.34, y: 0.93006384}
  - {x: 0.06700003, y: 0.8835604}
  - {x: 1.273, y: 0.8835604}
  - {x: 1.3399986, y: 0.930066}
  - {x: 1.3399986, y: 0}
  - {x: 1.2729985, y: 0.8835627}
  - {x: 1.2729985, y: 0.046503305}
  - {x: 1.34, y: 0}
  - {x: 0, y: 0}
  - {x: 1.273, y: 0.046503413}
  - {x: 0.06700003, y: 0.046503413}
  - {x: 0, y: 0}
  - {x: 0, y: 0.930066}
  - {x: 0.067000106, y: 0.046503305}
  - {x: 0.067000106, y: 0.8835627}
  - {x: 0, y: 0.9302069}
  - {x: -1.34, y: 0.9302069}
  - {x: -0.06699991, y: 1.0007037}
  - {x: -1.2730001, y: 1.0007037}
  - {x: -0.0001492563, y: 2.34}
  - {x: -0.0001492563, y: 0.930066}
  - {x: -0.067149244, y: 2.2695034}
  - {x: -0.067149244, y: 1.0005627}
  - {x: -1.3398494, y: 0.930066}
  - {x: -1.3398494, y: 2.34}
  - {x: -1.2728493, y: 1.0005627}
  - {x: -1.2728493, y: 2.2695034}
  - {x: -1.34, y: 2.3398557}
  - {x: 0, y: 2.3398557}
  - {x: -1.2730001, y: 2.269359}
  - {x: -0.06699991, y: 2.269359}
  - {x: 0, y: 0.0002150419}
  - {x: -1.34, y: 0.0002150419}
  - {x: -0.06699991, y: 0.046718396}
  - {x: -1.2730001, y: 0.046718396}
  - {x: -0.0001492563, y: 0.930066}
  - {x: -0.0001492563, y: 0}
  - {x: -0.067149244, y: 0.88356274}
  - {x: -0.067149244, y: 0.046503246}
  - {x: -1.3398494, y: 0}
  - {x: -1.3398494, y: 0.930066}
  - {x: -1.2728493, y: 0.046503246}
  - {x: -1.2728493, y: 0.88356274}
  - {x: -1.34, y: 0.9298488}
  - {x: 0, y: 0.9298488}
  - {x: -1.2730001, y: 0.8833454}
  - {x: -0.06699991, y: 0.8833454}
  - {x: 0.0001, y: -0.06700003}
  - {x: 0.0001, y: -1.273}
  - {x: -0.028278649, y: -0.06700003}
  - {x: -0.028278649, y: -1.273}
  - {x: 0.0001, y: 2.269503}
  - {x: 0.0001, y: 1.0005627}
  - {x: -0.028278649, y: 2.269503}
  - {x: -0.028278649, y: 1.0005627}
  - {x: -0.0001, y: -1.273}
  - {x: -0.0001, y: -0.06700003}
  - {x: 0.028278649, y: -1.273}
  - {x: 0.028278649, y: -0.06700003}
  - {x: -0.0001, y: 1.0005627}
  - {x: -0.0001, y: 2.269503}
  - {x: 0.028278649, y: 1.0005627}
  - {x: 0.028278649, y: 2.269503}
  - {x: 0.0001, y: -0.06700003}
  - {x: 0.0001, y: -1.273}
  - {x: -0.027363095, y: -0.06700003}
  - {x: -0.027363095, y: -1.273}
  - {x: 0.0001, y: 0.8835627}
  - {x: 0.0001, y: 0.046503305}
  - {x: -0.027363095, y: 0.8835627}
  - {x: -0.027363095, y: 0.046503305}
  - {x: -0.0001, y: -1.273}
  - {x: -0.0001, y: -0.06700003}
  - {x: 0.027363095, y: -1.273}
  - {x: 0.027363095, y: -0.06700003}
  - {x: -0.0001, y: 0.046503305}
  - {x: -0.0001, y: 0.8835627}
  - {x: 0.027363095, y: 0.046503305}
  - {x: 0.027363095, y: 0.8835627}
  - {x: 0.1001, y: -0.06699991}
  - {x: 0.1001, y: -1.2730001}
  - {x: 0.075833626, y: -0.06699991}
  - {x: 0.075833626, y: -1.2730001}
  - {x: 0.1001, y: 2.2695034}
  - {x: 0.1001, y: 1.0005627}
  - {x: 0.075833626, y: 2.2695034}
  - {x: 0.075833626, y: 1.0005627}
  - {x: -0.1001, y: 1.0005627}
  - {x: -0.1001, y: 2.2695034}
  - {x: -0.075833626, y: 1.0005627}
  - {x: -0.075833626, y: 2.2695034}
  - {x: -0.1001, y: -1.2730001}
  - {x: -0.1001, y: -0.06699991}
  - {x: -0.075833626, y: -1.2730001}
  - {x: -0.075833626, y: -0.06699991}
  - {x: 0.1001, y: -0.06699991}
  - {x: 0.1001, y: -1.2730001}
  - {x: 0.07561237, y: -0.06699991}
  - {x: 0.07561237, y: -1.2730001}
  - {x: 0.1001, y: 0.88356274}
  - {x: 0.1001, y: 0.046503246}
  - {x: 0.07561237, y: 0.88356274}
  - {x: 0.07561237, y: 0.046503246}
  - {x: -0.1001, y: 0.046503246}
  - {x: -0.1001, y: 0.88356274}
  - {x: -0.07561237, y: 0.046503246}
  - {x: -0.07561237, y: 0.88356274}
  - {x: -0.1001, y: -1.2730001}
  - {x: -0.1001, y: -0.06699991}
  - {x: -0.07561237, y: -1.2730001}
  - {x: -0.07561237, y: -0.06699991}
  _uv3:
  - {x: 0, y: 0, z: 0, w: 0}
  - {x: 0, y: 0, z: 0, w: 0}
  - {x: 0, y: 0, z: 0, w: 0}
  - {x: 0, y: 0, z: 0, w: 0}
  - {x: 0, y: 0, z: 0, w: 0}
  - {x: 0, y: 0, z: 0, w: 0}
  - {x: 0, y: 0, z: 0, w: 0}
  - {x: 0, y: 0, z: 0, w: 0}
  - {x: 0, y: 0, z: 0, w: 0}
  - {x: 0, y: 0, z: 0, w: 0}
  - {x: 0, y: 0, z: 0, w: 0}
  - {x: 0, y: 0, z: 0, w: 0}
  - {x: 0, y: 0, z: 0, w: 0}
  - {x: 0, y: 0, z: 0, w: 0}
  - {x: 0, y: 0, z: 0, w: 0}
  - {x: 0, y: 0, z: 0, w: 0}
  - {x: 0, y: 0, z: 0, w: 0}
  - {x: 0, y: 0, z: 0, w: 0}
  - {x: 0, y: 0, z: 0, w: 0}
  - {x: 0, y: 0, z: 0, w: 0}
  - {x: 0, y: 0, z: 0, w: 0}
  - {x: 0, y: 0, z: 0, w: 0}
  - {x: 0, y: 0, z: 0, w: 0}
  - {x: 0, y: 0, z: 0, w: 0}
  - {x: 0, y: 0, z: 0, w: 0}
  - {x: 0, y: 0, z: 0, w: 0}
  - {x: 0, y: 0, z: 0, w: 0}
  - {x: 0, y: 0, z: 0, w: 0}
  - {x: 0, y: 0, z: 0, w: 0}
  - {x: 0, y: 0, z: 0, w: 0}
  - {x: 0, y: 0, z: 0, w: 0}
  - {x: 0, y: 0, z: 0, w: 0}
  - {x: 0, y: 0, z: 0, w: 0}
  - {x: 0, y: 0, z: 0, w: 0}
  - {x: 0, y: 0, z: 0, w: 0}
  - {x: 0, y: 0, z: 0, w: 0}
  - {x: 0, y: 0, z: 0, w: 0}
  - {x: 0, y: 0, z: 0, w: 0}
  - {x: 0, y: 0, z: 0, w: 0}
  - {x: 0, y: 0, z: 0, w: 0}
  - {x: 0, y: 0, z: 0, w: 0}
  - {x: 0, y: 0, z: 0, w: 0}
  - {x: 0, y: 0, z: 0, w: 0}
  - {x: 0, y: 0, z: 0, w: 0}
  - {x: 0, y: 0, z: 0, w: 0}
  - {x: 0, y: 0, z: 0, w: 0}
  - {x: 0, y: 0, z: 0, w: 0}
  - {x: 0, y: 0, z: 0, w: 0}
  - {x: 0, y: 0, z: 0, w: 0}
  - {x: 0, y: 0, z: 0, w: 0}
  - {x: 0, y: 0, z: 0, w: 0}
  - {x: 0, y: 0, z: 0, w: 0}
  - {x: 0, y: 0, z: 0, w: 0}
  - {x: 0, y: 0, z: 0, w: 0}
  - {x: 0, y: 0, z: 0, w: 0}
  - {x: 0, y: 0, z: 0, w: 0}
  - {x: 0, y: 0, z: 0, w: 0}
  - {x: 0, y: 0, z: 0, w: 0}
  - {x: 0, y: 0, z: 0, w: 0}
  - {x: 0, y: 0, z: 0, w: 0}
  - {x: 0, y: 0, z: 0, w: 0}
  - {x: 0, y: 0, z: 0, w: 0}
  - {x: 0, y: 0, z: 0, w: 0}
  - {x: 0, y: 0, z: 0, w: 0}
  - {x: 0, y: 0, z: 0, w: 0}
  - {x: 0, y: 0, z: 0, w: 0}
  - {x: 0, y: 0, z: 0, w: 0}
  - {x: 0, y: 0, z: 0, w: 0}
  - {x: 0, y: 0, z: 0, w: 0}
  - {x: 0, y: 0, z: 0, w: 0}
  - {x: 0, y: 0, z: 0, w: 0}
  - {x: 0, y: 0, z: 0, w: 0}
  - {x: 0, y: 0, z: 0, w: 0}
  - {x: 0, y: 0, z: 0, w: 0}
  - {x: 0, y: 0, z: 0, w: 0}
  - {x: 0, y: 0, z: 0, w: 0}
  - {x: 0, y: 0, z: 0, w: 0}
  - {x: 0, y: 0, z: 0, w: 0}
  - {x: 0, y: 0, z: 0, w: 0}
  - {x: 0, y: 0, z: 0, w: 0}
  - {x: 0, y: 0, z: 0, w: 0}
  - {x: 0, y: 0, z: 0, w: 0}
  - {x: 0, y: 0, z: 0, w: 0}
  - {x: 0, y: 0, z: 0, w: 0}
  - {x: 0, y: 0, z: 0, w: 0}
  - {x: 0, y: 0, z: 0, w: 0}
  - {x: 0, y: 0, z: 0, w: 0}
  - {x: 0, y: 0, z: 0, w: 0}
  - {x: 0, y: 0, z: 0, w: 0}
  - {x: 0, y: 0, z: 0, w: 0}
  - {x: 0, y: 0, z: 0, w: 0}
  - {x: 0, y: 0, z: 0, w: 0}
  - {x: 0, y: 0, z: 0, w: 0}
  - {x: 0, y: 0, z: 0, w: 0}
  - {x: 0, y: 0, z: 0, w: 0}
  - {x: 0, y: 0, z: 0, w: 0}
  - {x: 0, y: 0, z: 0, w: 0}
  - {x: 0, y: 0, z: 0, w: 0}
  - {x: 0, y: 0, z: 0, w: 0}
  - {x: 0, y: 0, z: 0, w: 0}
  - {x: 0, y: 0, z: 0, w: 0}
  - {x: 0, y: 0, z: 0, w: 0}
  - {x: 0, y: 0, z: 0, w: 0}
  - {x: 0, y: 0, z: 0, w: 0}
  - {x: 0, y: 0, z: 0, w: 0}
  - {x: 0, y: 0, z: 0, w: 0}
  - {x: 0, y: 0, z: 0, w: 0}
  - {x: 0, y: 0, z: 0, w: 0}
  - {x: 0, y: 0, z: 0, w: 0}
  - {x: 0, y: 0, z: 0, w: 0}
  - {x: 0, y: 0, z: 0, w: 0}
  - {x: 0, y: 0, z: 0, w: 0}
  - {x: 0, y: 0, z: 0, w: 0}
  - {x: 0, y: 0, z: 0, w: 0}
  - {x: 0, y: 0, z: 0, w: 0}
  - {x: 0, y: 0, z: 0, w: 0}
  - {x: 0, y: 0, z: 0, w: 0}
  - {x: 0, y: 0, z: 0, w: 0}
  - {x: 0, y: 0, z: 0, w: 0}
  - {x: 0, y: 0, z: 0, w: 0}
  - {x: 0, y: 0, z: 0, w: 0}
  - {x: 0, y: 0, z: 0, w: 0}
  - {x: 0, y: 0, z: 0, w: 0}
  - {x: 0, y: 0, z: 0, w: 0}
  - {x: 0, y: 0, z: 0, w: 0}
  - {x: 0, y: 0, z: 0, w: 0}
  - {x: 0, y: 0, z: 0, w: 0}
  - {x: 0, y: 0, z: 0, w: 0}
  - {x: 0, y: 0, z: 0, w: 0}
  - {x: 0, y: 0, z: 0, w: 0}
  - {x: 0, y: 0, z: 0, w: 0}
  - {x: 0, y: 0, z: 0, w: 0}
  - {x: 0, y: 0, z: 0, w: 0}
  - {x: 0, y: 0, z: 0, w: 0}
  - {x: 0, y: 0, z: 0, w: 0}
  - {x: 0, y: 0, z: 0, w: 0}
  - {x: 0, y: 0, z: 0, w: 0}
  - {x: 0, y: 0, z: 0, w: 0}
  - {x: 0, y: 0, z: 0, w: 0}
  - {x: 0, y: 0, z: 0, w: 0}
  - {x: 0, y: 0, z: 0, w: 0}
  - {x: 0, y: 0, z: 0, w: 0}
  - {x: 0, y: 0, z: 0, w: 0}
  - {x: 0, y: 0, z: 0, w: 0}
  - {x: 0, y: 0, z: 0, w: 0}
  - {x: 0, y: 0, z: 0, w: 0}
  - {x: 0, y: 0, z: 0, w: 0}
  - {x: 0, y: 0, z: 0, w: 0}
  - {x: 0, y: 0, z: 0, w: 0}
  - {x: 0, y: 0, z: 0, w: 0}
  - {x: 0, y: 0, z: 0, w: 0}
  - {x: 0, y: 0, z: 0, w: 0}
  - {x: 0, y: 0, z: 0, w: 0}
  - {x: 0, y: 0, z: 0, w: 0}
  - {x: 0, y: 0, z: 0, w: 0}
  - {x: 0, y: 0, z: 0, w: 0}
  - {x: 0, y: 0, z: 0, w: 0}
  - {x: 0, y: 0, z: 0, w: 0}
  - {x: 0, y: 0, z: 0, w: 0}
  - {x: 0, y: 0, z: 0, w: 0}
  - {x: 0, y: 0, z: 0, w: 0}
  - {x: 0, y: 0, z: 0, w: 0}
  - {x: 0, y: 0, z: 0, w: 0}
  - {x: 0, y: 0, z: 0, w: 0}
  - {x: 0, y: 0, z: 0, w: 0}
  - {x: 0, y: 0, z: 0, w: 0}
  - {x: 0, y: 0, z: 0, w: 0}
  - {x: 0, y: 0, z: 0, w: 0}
  _uv4:
  - {x: 0, y: 0, z: 0, w: 0}
  - {x: 0, y: 0, z: 0, w: 0}
  - {x: 0, y: 0, z: 0, w: 0}
  - {x: 0, y: 0, z: 0, w: 0}
  - {x: 0, y: 0, z: 0, w: 0}
  - {x: 0, y: 0, z: 0, w: 0}
  - {x: 0, y: 0, z: 0, w: 0}
  - {x: 0, y: 0, z: 0, w: 0}
  - {x: 0, y: 0, z: 0, w: 0}
  - {x: 0, y: 0, z: 0, w: 0}
  - {x: 0, y: 0, z: 0, w: 0}
  - {x: 0, y: 0, z: 0, w: 0}
  - {x: 0, y: 0, z: 0, w: 0}
  - {x: 0, y: 0, z: 0, w: 0}
  - {x: 0, y: 0, z: 0, w: 0}
  - {x: 0, y: 0, z: 0, w: 0}
  - {x: 0, y: 0, z: 0, w: 0}
  - {x: 0, y: 0, z: 0, w: 0}
  - {x: 0, y: 0, z: 0, w: 0}
  - {x: 0, y: 0, z: 0, w: 0}
  - {x: 0, y: 0, z: 0, w: 0}
  - {x: 0, y: 0, z: 0, w: 0}
  - {x: 0, y: 0, z: 0, w: 0}
  - {x: 0, y: 0, z: 0, w: 0}
  - {x: 0, y: 0, z: 0, w: 0}
  - {x: 0, y: 0, z: 0, w: 0}
  - {x: 0, y: 0, z: 0, w: 0}
  - {x: 0, y: 0, z: 0, w: 0}
  - {x: 0, y: 0, z: 0, w: 0}
  - {x: 0, y: 0, z: 0, w: 0}
  - {x: 0, y: 0, z: 0, w: 0}
  - {x: 0, y: 0, z: 0, w: 0}
  - {x: 0, y: 0, z: 0, w: 0}
  - {x: 0, y: 0, z: 0, w: 0}
  - {x: 0, y: 0, z: 0, w: 0}
  - {x: 0, y: 0, z: 0, w: 0}
  - {x: 0, y: 0, z: 0, w: 0}
  - {x: 0, y: 0, z: 0, w: 0}
  - {x: 0, y: 0, z: 0, w: 0}
  - {x: 0, y: 0, z: 0, w: 0}
  - {x: 0, y: 0, z: 0, w: 0}
  - {x: 0, y: 0, z: 0, w: 0}
  - {x: 0, y: 0, z: 0, w: 0}
  - {x: 0, y: 0, z: 0, w: 0}
  - {x: 0, y: 0, z: 0, w: 0}
  - {x: 0, y: 0, z: 0, w: 0}
  - {x: 0, y: 0, z: 0, w: 0}
  - {x: 0, y: 0, z: 0, w: 0}
  - {x: 0, y: 0, z: 0, w: 0}
  - {x: 0, y: 0, z: 0, w: 0}
  - {x: 0, y: 0, z: 0, w: 0}
  - {x: 0, y: 0, z: 0, w: 0}
  - {x: 0, y: 0, z: 0, w: 0}
  - {x: 0, y: 0, z: 0, w: 0}
  - {x: 0, y: 0, z: 0, w: 0}
  - {x: 0, y: 0, z: 0, w: 0}
  - {x: 0, y: 0, z: 0, w: 0}
  - {x: 0, y: 0, z: 0, w: 0}
  - {x: 0, y: 0, z: 0, w: 0}
  - {x: 0, y: 0, z: 0, w: 0}
  - {x: 0, y: 0, z: 0, w: 0}
  - {x: 0, y: 0, z: 0, w: 0}
  - {x: 0, y: 0, z: 0, w: 0}
  - {x: 0, y: 0, z: 0, w: 0}
  - {x: 0, y: 0, z: 0, w: 0}
  - {x: 0, y: 0, z: 0, w: 0}
  - {x: 0, y: 0, z: 0, w: 0}
  - {x: 0, y: 0, z: 0, w: 0}
  - {x: 0, y: 0, z: 0, w: 0}
  - {x: 0, y: 0, z: 0, w: 0}
  - {x: 0, y: 0, z: 0, w: 0}
  - {x: 0, y: 0, z: 0, w: 0}
  - {x: 0, y: 0, z: 0, w: 0}
  - {x: 0, y: 0, z: 0, w: 0}
  - {x: 0, y: 0, z: 0, w: 0}
  - {x: 0, y: 0, z: 0, w: 0}
  - {x: 0, y: 0, z: 0, w: 0}
  - {x: 0, y: 0, z: 0, w: 0}
  - {x: 0, y: 0, z: 0, w: 0}
  - {x: 0, y: 0, z: 0, w: 0}
  - {x: 0, y: 0, z: 0, w: 0}
  - {x: 0, y: 0, z: 0, w: 0}
  - {x: 0, y: 0, z: 0, w: 0}
  - {x: 0, y: 0, z: 0, w: 0}
  - {x: 0, y: 0, z: 0, w: 0}
  - {x: 0, y: 0, z: 0, w: 0}
  - {x: 0, y: 0, z: 0, w: 0}
  - {x: 0, y: 0, z: 0, w: 0}
  - {x: 0, y: 0, z: 0, w: 0}
  - {x: 0, y: 0, z: 0, w: 0}
  - {x: 0, y: 0, z: 0, w: 0}
  - {x: 0, y: 0, z: 0, w: 0}
  - {x: 0, y: 0, z: 0, w: 0}
  - {x: 0, y: 0, z: 0, w: 0}
  - {x: 0, y: 0, z: 0, w: 0}
  - {x: 0, y: 0, z: 0, w: 0}
  - {x: 0, y: 0, z: 0, w: 0}
  - {x: 0, y: 0, z: 0, w: 0}
  - {x: 0, y: 0, z: 0, w: 0}
  - {x: 0, y: 0, z: 0, w: 0}
  - {x: 0, y: 0, z: 0, w: 0}
  - {x: 0, y: 0, z: 0, w: 0}
  - {x: 0, y: 0, z: 0, w: 0}
  - {x: 0, y: 0, z: 0, w: 0}
  - {x: 0, y: 0, z: 0, w: 0}
  - {x: 0, y: 0, z: 0, w: 0}
  - {x: 0, y: 0, z: 0, w: 0}
  - {x: 0, y: 0, z: 0, w: 0}
  - {x: 0, y: 0, z: 0, w: 0}
  - {x: 0, y: 0, z: 0, w: 0}
  - {x: 0, y: 0, z: 0, w: 0}
  - {x: 0, y: 0, z: 0, w: 0}
  - {x: 0, y: 0, z: 0, w: 0}
  - {x: 0, y: 0, z: 0, w: 0}
  - {x: 0, y: 0, z: 0, w: 0}
  - {x: 0, y: 0, z: 0, w: 0}
  - {x: 0, y: 0, z: 0, w: 0}
  - {x: 0, y: 0, z: 0, w: 0}
  - {x: 0, y: 0, z: 0, w: 0}
  - {x: 0, y: 0, z: 0, w: 0}
  - {x: 0, y: 0, z: 0, w: 0}
  - {x: 0, y: 0, z: 0, w: 0}
  - {x: 0, y: 0, z: 0, w: 0}
  - {x: 0, y: 0, z: 0, w: 0}
  - {x: 0, y: 0, z: 0, w: 0}
  - {x: 0, y: 0, z: 0, w: 0}
  - {x: 0, y: 0, z: 0, w: 0}
  - {x: 0, y: 0, z: 0, w: 0}
  - {x: 0, y: 0, z: 0, w: 0}
  - {x: 0, y: 0, z: 0, w: 0}
  - {x: 0, y: 0, z: 0, w: 0}
  - {x: 0, y: 0, z: 0, w: 0}
  - {x: 0, y: 0, z: 0, w: 0}
  - {x: 0, y: 0, z: 0, w: 0}
  - {x: 0, y: 0, z: 0, w: 0}
  - {x: 0, y: 0, z: 0, w: 0}
  - {x: 0, y: 0, z: 0, w: 0}
  - {x: 0, y: 0, z: 0, w: 0}
  - {x: 0, y: 0, z: 0, w: 0}
  - {x: 0, y: 0, z: 0, w: 0}
  - {x: 0, y: 0, z: 0, w: 0}
  - {x: 0, y: 0, z: 0, w: 0}
  - {x: 0, y: 0, z: 0, w: 0}
  - {x: 0, y: 0, z: 0, w: 0}
  - {x: 0, y: 0, z: 0, w: 0}
  - {x: 0, y: 0, z: 0, w: 0}
  - {x: 0, y: 0, z: 0, w: 0}
  - {x: 0, y: 0, z: 0, w: 0}
  - {x: 0, y: 0, z: 0, w: 0}
  - {x: 0, y: 0, z: 0, w: 0}
  - {x: 0, y: 0, z: 0, w: 0}
  - {x: 0, y: 0, z: 0, w: 0}
  - {x: 0, y: 0, z: 0, w: 0}
  - {x: 0, y: 0, z: 0, w: 0}
  - {x: 0, y: 0, z: 0, w: 0}
  - {x: 0, y: 0, z: 0, w: 0}
  - {x: 0, y: 0, z: 0, w: 0}
  - {x: 0, y: 0, z: 0, w: 0}
  - {x: 0, y: 0, z: 0, w: 0}
  - {x: 0, y: 0, z: 0, w: 0}
  - {x: 0, y: 0, z: 0, w: 0}
  - {x: 0, y: 0, z: 0, w: 0}
  - {x: 0, y: 0, z: 0, w: 0}
  - {x: 0, y: 0, z: 0, w: 0}
  - {x: 0, y: 0, z: 0, w: 0}
  - {x: 0, y: 0, z: 0, w: 0}
  - {x: 0, y: 0, z: 0, w: 0}
  - {x: 0, y: 0, z: 0, w: 0}
  _tangents: []
  _sharedIndicesUV: []
  _colors:
  - {r: 1, g: 1, b: 1, a: 1}
  - {r: 1, g: 1, b: 1, a: 1}
  - {r: 1, g: 1, b: 1, a: 1}
  - {r: 1, g: 1, b: 1, a: 1}
  - {r: 1, g: 1, b: 1, a: 1}
  - {r: 1, g: 1, b: 1, a: 1}
  - {r: 1, g: 1, b: 1, a: 1}
  - {r: 1, g: 1, b: 1, a: 1}
  - {r: 1, g: 1, b: 1, a: 1}
  - {r: 1, g: 1, b: 1, a: 1}
  - {r: 1, g: 1, b: 1, a: 1}
  - {r: 1, g: 1, b: 1, a: 1}
  - {r: 1, g: 1, b: 1, a: 1}
  - {r: 1, g: 1, b: 1, a: 1}
  - {r: 1, g: 1, b: 1, a: 1}
  - {r: 1, g: 1, b: 1, a: 1}
  - {r: 1, g: 1, b: 1, a: 1}
  - {r: 1, g: 1, b: 1, a: 1}
  - {r: 1, g: 1, b: 1, a: 1}
  - {r: 1, g: 1, b: 1, a: 1}
  - {r: 1, g: 1, b: 1, a: 1}
  - {r: 1, g: 1, b: 1, a: 1}
  - {r: 1, g: 1, b: 1, a: 1}
  - {r: 1, g: 1, b: 1, a: 1}
  - {r: 1, g: 1, b: 1, a: 1}
  - {r: 1, g: 1, b: 1, a: 1}
  - {r: 1, g: 1, b: 1, a: 1}
  - {r: 1, g: 1, b: 1, a: 1}
  - {r: 1, g: 1, b: 1, a: 1}
  - {r: 1, g: 1, b: 1, a: 1}
  - {r: 1, g: 1, b: 1, a: 1}
  - {r: 1, g: 1, b: 1, a: 1}
  - {r: 1, g: 1, b: 1, a: 1}
  - {r: 1, g: 1, b: 1, a: 1}
  - {r: 1, g: 1, b: 1, a: 1}
  - {r: 1, g: 1, b: 1, a: 1}
  - {r: 1, g: 1, b: 1, a: 1}
  - {r: 1, g: 1, b: 1, a: 1}
  - {r: 1, g: 1, b: 1, a: 1}
  - {r: 1, g: 1, b: 1, a: 1}
  - {r: 1, g: 1, b: 1, a: 1}
  - {r: 1, g: 1, b: 1, a: 1}
  - {r: 1, g: 1, b: 1, a: 1}
  - {r: 1, g: 1, b: 1, a: 1}
  - {r: 1, g: 1, b: 1, a: 1}
  - {r: 1, g: 1, b: 1, a: 1}
  - {r: 1, g: 1, b: 1, a: 1}
  - {r: 1, g: 1, b: 1, a: 1}
  - {r: 1, g: 1, b: 1, a: 1}
  - {r: 1, g: 1, b: 1, a: 1}
  - {r: 1, g: 1, b: 1, a: 1}
  - {r: 1, g: 1, b: 1, a: 1}
  - {r: 1, g: 1, b: 1, a: 1}
  - {r: 1, g: 1, b: 1, a: 1}
  - {r: 1, g: 1, b: 1, a: 1}
  - {r: 1, g: 1, b: 1, a: 1}
  - {r: 1, g: 1, b: 1, a: 1}
  - {r: 1, g: 1, b: 1, a: 1}
  - {r: 1, g: 1, b: 1, a: 1}
  - {r: 1, g: 1, b: 1, a: 1}
  - {r: 1, g: 1, b: 1, a: 1}
  - {r: 1, g: 1, b: 1, a: 1}
  - {r: 1, g: 1, b: 1, a: 1}
  - {r: 1, g: 1, b: 1, a: 1}
  - {r: 1, g: 1, b: 1, a: 1}
  - {r: 1, g: 1, b: 1, a: 1}
  - {r: 1, g: 1, b: 1, a: 1}
  - {r: 1, g: 1, b: 1, a: 1}
  - {r: 1, g: 1, b: 1, a: 1}
  - {r: 1, g: 1, b: 1, a: 1}
  - {r: 1, g: 1, b: 1, a: 1}
  - {r: 1, g: 1, b: 1, a: 1}
  - {r: 1, g: 1, b: 1, a: 1}
  - {r: 1, g: 1, b: 1, a: 1}
  - {r: 1, g: 1, b: 1, a: 1}
  - {r: 1, g: 1, b: 1, a: 1}
  - {r: 1, g: 1, b: 1, a: 1}
  - {r: 1, g: 1, b: 1, a: 1}
  - {r: 1, g: 1, b: 1, a: 1}
  - {r: 1, g: 1, b: 1, a: 1}
  - {r: 1, g: 1, b: 1, a: 1}
  - {r: 1, g: 1, b: 1, a: 1}
  - {r: 1, g: 1, b: 1, a: 1}
  - {r: 1, g: 1, b: 1, a: 1}
  - {r: 1, g: 1, b: 1, a: 1}
  - {r: 1, g: 1, b: 1, a: 1}
  - {r: 1, g: 1, b: 1, a: 1}
  - {r: 1, g: 1, b: 1, a: 1}
  - {r: 1, g: 1, b: 1, a: 1}
  - {r: 1, g: 1, b: 1, a: 1}
  - {r: 1, g: 1, b: 1, a: 1}
  - {r: 1, g: 1, b: 1, a: 1}
  - {r: 1, g: 1, b: 1, a: 1}
  - {r: 1, g: 1, b: 1, a: 1}
  - {r: 1, g: 1, b: 1, a: 1}
  - {r: 1, g: 1, b: 1, a: 1}
  - {r: 1, g: 1, b: 1, a: 1}
  - {r: 1, g: 1, b: 1, a: 1}
  - {r: 1, g: 1, b: 1, a: 1}
  - {r: 1, g: 1, b: 1, a: 1}
  - {r: 1, g: 1, b: 1, a: 1}
  - {r: 1, g: 1, b: 1, a: 1}
  - {r: 1, g: 1, b: 1, a: 1}
  - {r: 1, g: 1, b: 1, a: 1}
  - {r: 1, g: 1, b: 1, a: 1}
  - {r: 1, g: 1, b: 1, a: 1}
  - {r: 1, g: 1, b: 1, a: 1}
  - {r: 1, g: 1, b: 1, a: 1}
  - {r: 1, g: 1, b: 1, a: 1}
  - {r: 1, g: 1, b: 1, a: 1}
  - {r: 1, g: 1, b: 1, a: 1}
  - {r: 1, g: 1, b: 1, a: 1}
  - {r: 1, g: 1, b: 1, a: 1}
  - {r: 1, g: 1, b: 1, a: 1}
  - {r: 1, g: 1, b: 1, a: 1}
  - {r: 1, g: 1, b: 1, a: 1}
  - {r: 1, g: 1, b: 1, a: 1}
  - {r: 1, g: 1, b: 1, a: 1}
  - {r: 1, g: 1, b: 1, a: 1}
  - {r: 1, g: 1, b: 1, a: 1}
  - {r: 1, g: 1, b: 1, a: 1}
  - {r: 1, g: 1, b: 1, a: 1}
  - {r: 1, g: 1, b: 1, a: 1}
  - {r: 1, g: 1, b: 1, a: 1}
  - {r: 1, g: 1, b: 1, a: 1}
  - {r: 1, g: 1, b: 1, a: 1}
  - {r: 1, g: 1, b: 1, a: 1}
  - {r: 1, g: 1, b: 1, a: 1}
  - {r: 1, g: 1, b: 1, a: 1}
  - {r: 1, g: 1, b: 1, a: 1}
  - {r: 1, g: 1, b: 1, a: 1}
  - {r: 1, g: 1, b: 1, a: 1}
  - {r: 1, g: 1, b: 1, a: 1}
  - {r: 1, g: 1, b: 1, a: 1}
  - {r: 1, g: 1, b: 1, a: 1}
  - {r: 1, g: 1, b: 1, a: 1}
  - {r: 1, g: 1, b: 1, a: 1}
  - {r: 1, g: 1, b: 1, a: 1}
  - {r: 1, g: 1, b: 1, a: 1}
  - {r: 1, g: 1, b: 1, a: 1}
  - {r: 1, g: 1, b: 1, a: 1}
  - {r: 1, g: 1, b: 1, a: 1}
  - {r: 1, g: 1, b: 1, a: 1}
  - {r: 1, g: 1, b: 1, a: 1}
  - {r: 1, g: 1, b: 1, a: 1}
  - {r: 1, g: 1, b: 1, a: 1}
  - {r: 1, g: 1, b: 1, a: 1}
  - {r: 1, g: 1, b: 1, a: 1}
  - {r: 1, g: 1, b: 1, a: 1}
  - {r: 1, g: 1, b: 1, a: 1}
  - {r: 1, g: 1, b: 1, a: 1}
  - {r: 1, g: 1, b: 1, a: 1}
  - {r: 1, g: 1, b: 1, a: 1}
  - {r: 1, g: 1, b: 1, a: 1}
  - {r: 1, g: 1, b: 1, a: 1}
  - {r: 1, g: 1, b: 1, a: 1}
  - {r: 1, g: 1, b: 1, a: 1}
  - {r: 1, g: 1, b: 1, a: 1}
  - {r: 1, g: 1, b: 1, a: 1}
  - {r: 1, g: 1, b: 1, a: 1}
  - {r: 1, g: 1, b: 1, a: 1}
  - {r: 1, g: 1, b: 1, a: 1}
  - {r: 1, g: 1, b: 1, a: 1}
  - {r: 1, g: 1, b: 1, a: 1}
  - {r: 1, g: 1, b: 1, a: 1}
  - {r: 1, g: 1, b: 1, a: 1}
  - {r: 1, g: 1, b: 1, a: 1}
  - {r: 1, g: 1, b: 1, a: 1}
  userCollisions: 0
  isSelectable: 1
  unwrapParameters:
    hardAngle: 88
    packMargin: 4
    angleError: 8
    areaError: 15
  asset_guid: 
  dontDestroyMeshOnDelete: 0
  m_selectedFaces: 
  m_SelectedEdges: []
  m_selectedTriangles: 
